r774 | jjacob | 2011-08-08 18:40:42 EDT
Changed paths:
	M /software/branches/PinPoint/branch-v5.1.4.7-r339/src/com/ncsts/dto/BatchPreferenceDTO.java
	M /software/branches/PinPoint/branch-v5.1.4.7-r339/src/build_id/build_id.properties
	A /software/branches/PinPoint/branch-v5.1.4.7-r339/src/com/ncsts/test/NullTest.java

0001635: Collective Brands - Date Issue
----------------------------------------------------------------------------